\relax 
\providecommand\hyper@newdestlabel[2]{}
\catcode `"\active 
\providecommand\HyperFirstAtBeginDocument{\AtBeginDocument}
\HyperFirstAtBeginDocument{\ifx\hyper@anchor\@undefined
\global\let\oldcontentsline\contentsline
\gdef\contentsline#1#2#3#4{\oldcontentsline{#1}{#2}{#3}}
\global\let\oldnewlabel\newlabel
\gdef\newlabel#1#2{\newlabelxx{#1}#2}
\gdef\newlabelxx#1#2#3#4#5#6{\oldnewlabel{#1}{{#2}{#3}}}
\AtEndDocument{\ifx\hyper@anchor\@undefined
\let\contentsline\oldcontentsline
\let\newlabel\oldnewlabel
\fi}
\fi}
\global\let\hyper@last\relax 
\gdef\HyperFirstAtBeginDocument#1{#1}
\providecommand\HyField@AuxAddToFields[1]{}
\providecommand\HyField@AuxAddToCoFields[2]{}
\select@language{brazil}
\@writefile{toc}{\select@language{brazil}}
\@writefile{lof}{\select@language{brazil}}
\@writefile{lot}{\select@language{brazil}}
\@writefile{toc}{\contentsline {section}{\numberline {1}Introdu\IeC {\c c}\IeC {\~a}o}{2}{section.1}}
\@writefile{lof}{\contentsline {figure}{\numberline {1}{\ignorespaces (a) Campo Minado em in\IeC {\'\i }cio de jogo (nota-se todos os tiles cobertos). (b) Campo Minado em fim de jogo (o jogador perdeu). Observa-se as minas e os n\IeC {\'u}meros de indica\IeC {\c c}\IeC {\~a}o. Observa-se tamb\IeC {\'e}m um contador de tempo no canto superior direito da tela.\relax }}{2}{figure.caption.1}}
\@writefile{lof}{\contentsline {subfigure}{\numberline{(a)}{\ignorespaces {}}}{2}{subfigure.1.1}}
\@writefile{lof}{\contentsline {subfigure}{\numberline{(b)}{\ignorespaces {}}}{2}{subfigure.1.2}}
\@writefile{toc}{\contentsline {section}{\numberline {2}Teoria aplicada ao projeto}{2}{section.2}}
\@writefile{lof}{\contentsline {figure}{\numberline {2}{\ignorespaces Imagem da FPGA utilizada no projeto: Cyclone II, da Altera.\relax }}{3}{figure.caption.2}}
\@writefile{lof}{\contentsline {figure}{\numberline {3}{\ignorespaces Flip-flop D com Set e Reset ass\IeC {\'\i }ncronos. Percebe-se que o sinal de clock se encontra na seta abaixo do sinal D.\relax }}{3}{figure.caption.3}}
\@writefile{lof}{\contentsline {figure}{\numberline {4}{\ignorespaces Exemplo de um contador (n\IeC {\~a}o gen\IeC {\'e}rico) que utiliza FFD's. Esse foi exatamente o princ\IeC {\'\i }pio de nosso contador gen\IeC {\'e}rico.\relax }}{4}{figure.caption.4}}
\@writefile{toc}{\contentsline {section}{\numberline {3}Estrutura e implementa\IeC {\c c}\IeC {\~a}o do jogo}{4}{section.3}}
\@writefile{toc}{\contentsline {subsection}{\numberline {3.1}Descri\IeC {\c c}\IeC {\~a}o dos m\IeC {\'o}dulos do jogo}{4}{subsection.3.1}}
\@writefile{toc}{\contentsline {subsubsection}{\numberline {3.1.1}Game Controller}{4}{subsubsection.3.1.1}}
\@writefile{toc}{\contentsline {subsubsection}{\numberline {3.1.2}Map Controller e Map Creator}{5}{subsubsection.3.1.2}}
\@writefile{toc}{\contentsline {subsubsection}{\numberline {3.1.3}Uso do LFSR (\textit  {Linear-feedback Shift Register}) na cria\IeC {\c c}\IeC {\~a}o de mapas}{6}{subsubsection.3.1.3}}
\@writefile{lof}{\contentsline {figure}{\numberline {5}{\ignorespaces \textit  {Linear-feedback Shift Register} de Fibonacci com polin\IeC {\^o}mio $x^{16} + x^{14} + x^{13} + x^{11} + 1$\relax }}{6}{figure.caption.5}}
\@writefile{toc}{\contentsline {subsubsection}{\numberline {3.1.4}Tile Controller}{7}{subsubsection.3.1.4}}
\@writefile{lof}{\contentsline {figure}{\numberline {6}{\ignorespaces M\IeC {\'a}quina de estados de Tile Controller.\relax }}{7}{figure.caption.6}}
\@writefile{toc}{\contentsline {subsubsection}{\numberline {3.1.5}Input Controller}{8}{subsubsection.3.1.5}}
\@writefile{toc}{\contentsline {subsubsection}{\numberline {3.1.6}Display Controller}{8}{subsubsection.3.1.6}}
\@writefile{lof}{\contentsline {figure}{\numberline {7}{\ignorespaces Layout de Campo Minado.\relax }}{8}{figure.caption.7}}
\@writefile{lof}{\contentsline {figure}{\numberline {8}{\ignorespaces Layout de Campo Minado ao lado da placa DE1.\relax }}{9}{figure.caption.8}}
\newlabel{PseudoCodigo1}{{1}{9}{Pseudo-Código da Escrita em Pixels de cada Tile}{lstlisting.1}{}}
\@writefile{lol}{\contentsline {lstlisting}{\numberline {1}Pseudo-C\IeC {\'o}digo da Escrita em Pixels de cada Tile}{9}{lstlisting.1}}
\@writefile{toc}{\contentsline {subsection}{\numberline {3.2}Uso do componente vga}{10}{subsection.3.2}}
\@writefile{toc}{\contentsline {subsection}{\numberline {3.3}Uso do mouse}{10}{subsection.3.3}}
\@writefile{toc}{\contentsline {section}{\numberline {4}Conclus\IeC {\~o}es}{10}{section.4}}
